Computational Text Analysis
…
Topic modelling

data("AssociatedPress", 
     package = "topicmodels")

ap_tidy <- tidy(AssociatedPress)
ap_tidy

# A tibble: 302,031 × 3
   document term       count
      <int> <chr>      <dbl>
 1        1 adding         1
 2        1 adult          2
 3        1 ago            1
 4        1 alcohol        1
 5        1 allegedly      1
 6        1 allen          1
 7        1 apparently     2
 8        1 appeared       1
 9        1 arrested       1
10        1 assault        1
# … with 302,021 more rows
…
Inspect βs

lda_beta <- tidy(lda_output, matrix = "beta")

lda_beta %>%
  arrange(-beta)

# A tibble: 104,730 × 3
   topic term      beta
   <int> <chr>    <dbl>
 1     5 percent 0.0336
 2     7 new     0.0167
 3     1 i       0.0145
 4     4 bank    0.0122
 5     9 soviet  0.0115
 6     6 bush    0.0115
 7     4 new     0.0113
 8     1 soviet  0.0110
 9     2 i       0.0106
10     5 prices  0.0105
# … with 104,720 more rows

Inspect γs

lda_gamma <- tidy(lda_output, matrix = "gamma")

lda_gamma %>%
  arrange(-gamma)

# A tibble: 1,000 × 3
   document topic gamma
      <int> <int> <dbl>
 1       76     9  1.00
 2       81     3  1.00
 3        6     3  1.00
 4       43     4  1.00
 5       31     5  1.00
 6       95     7  1.00
 7       77     6  1.00
 8       29     9  1.00
 9       80     2  1.00
10       57     1  1.00
# … with 990 more rows
…
