Topic models
…
Plot relative word frequencies

First let’s have a look and see whether there really are words obviously distinguishing the two Volumes.

tidy_tocq <- tocq %>%
  unnest_tokens(word, text) %>%
  anti_join(stop_words)

Joining, by = "word"

## Count most common words in both
tidy_tocq %>%
  count(word, sort = TRUE)

# A tibble: 12,092 × 2
   word           n
   <chr>      <int>
 1 people       876
 2 power        806
 3 united       781
 4 democratic   773
 5 government   718
 6 time         620
 7 nations      546
 8 society      531
 9 laws         530
10 country      524
# … with 12,082 more rows
…
# Split into words
tocq_chapter_word <- tocq_chapter %>%
  unnest_tokens(word, text)

# Find document-word counts
tocq_word_counts <- tocq_chapter_word %>%
  anti_join(stop_words) %>%
  count(document, word, sort = TRUE) %>%
  ungroup()

Joining, by = "word"

tocq_word_counts

# A tibble: 69,781 × 3
   document word             n
   <chr>    <chr>        <int>
 1 DiA2_76  united          88
 2 DiA2_60  honor           70
 3 DiA1_52  union           66
 4 DiA2_76  president       60
 5 DiA2_76  law             59
 6 DiA1_42  jury            57
 7 DiA2_76  time            50
 8 DiA1_11  township        49
 9 DiA1_21  federal         48
10 DiA2_76  constitution    48
# … with 69,771 more rows
…
We then re-estimate the topic model with this new DocumentTermMatrix object, specifying k equal to 2. This will enable us to evaluate whether a topic model is able to generatively assign to volume with accuracy.

tocq_chapters_lda <- LDA(tocq_chapters_dtm, k = 2, control = list(seed = 1234))

After this, it is worth looking at another output of the latent dirichlet allocation procedure. The γ probability represents the per-document-per-topic probability or, in other words, the probability that a given document (here: chapter) belongs to a particular topic (and here, we are assuming these topics represent volumes).

The gamma values are therefore the estimated proportion of words within a given chapter allocated to a given volume.

tocq_chapters_gamma <- tidy(tocq_chapters_lda, matrix = "gamma")
tocq_chapters_gamma

# A tibble: 264 × 3
   document topic     gamma
   <chr>    <int>     <dbl>
 1 DiA2_76      1 0.551    
 2 DiA2_60      1 1.00     
 3 DiA1_52      1 0.0000464
 4 DiA1_42      1 0.0000746
 5 DiA1_11      1 0.0000382
 6 DiA1_21      1 0.0000437
 7 DiA1_20      1 0.0000425
 8 DiA1_28      1 0.249    
 9 DiA1_50      1 0.0000477
10 DiA1_22      1 0.0000466
# … with 254 more rows
…
# Look document-word pairs were to see which words in each documents were assigned
# to a given topic

assignments <- augment(tocq_chapters_lda, data = tocq_chapters_dtm)
assignments

# A tibble: 69,781 × 4
   document term   count .topic
   <chr>    <chr>  <dbl>  <dbl>
 1 DiA2_76  united    88      2
 2 DiA2_60  united     6      1
 3 DiA1_52  united    11      2
 4 DiA1_42  united     7      2
 5 DiA1_11  united    13      2
 6 DiA1_21  united    23      2
 7 DiA1_20  united    21      2
 8 DiA1_28  united    14      2
 9 DiA1_50  united     5      2
10 DiA1_22  united     8      2
# … with 69,771 more rows
…
